{
  "is_class": true,
  "library": "sklearn",
  "common_name": "Gaussian NB",
  "compute_resources": {},
  "id": "1dc91464-3e8e-3c7b-a8d6-29215c390b77",
  "category": "naive_bayes",
  "source_code_unanalyzed": "https://github.com/scikit-learn/scikit-learn/blob/0.18.X/sklearn/naive_bayes.py#L106",
  "parameters": [
    {
      "shape": "n_classes,",
      "type": "array-like",
      "name": "priors",
      "description": "Prior probabilities of the classes. If specified the priors are not adjusted according to the data. "
    }
  ],
  "tags": [
    "naive_bayes"
  ],
  "common_name_unanalyzed": "Gaussian NB",
  "schema_version": 1.0,
  "languages": [
    "python2.7"
  ],
  "version": "0.18.1",
  "build": [
    {
      "type": "pip",
      "package": "scikit-learn"
    }
  ],
  "description": "'\nGaussian Naive Bayes (GaussianNB)\n\nCan perform online updates to model parameters via `partial_fit` method.\nFor details on algorithm used to update feature means and variance online,\nsee Stanford CS tech report STAN-CS-79-773 by Chan, Golub, and LeVeque:\n\nhttp://i.stanford.edu/pub/cstr/reports/cs/tr/79/773/CS-TR-79-773.pdf\n\nRead more in the :ref:`User Guide <gaussian_naive_bayes>`.\n",
  "methods_available": [
    {
      "id": "sklearn.naive_bayes.GaussianNB.fit",
      "returns": {
        "type": "object",
        "name": "self",
        "description": "Returns self. '"
      },
      "description": "'Fit Gaussian Naive Bayes according to X, y\n",
      "parameters": [
        {
          "shape": "n_samples, n_features",
          "type": "array-like",
          "name": "X",
          "description": "Training vectors, where n_samples is the number of samples and n_features is the number of features. "
        },
        {
          "shape": "n_samples,",
          "type": "array-like",
          "name": "y",
          "description": "Target values. "
        },
        {
          "name": "sample_weight",
          "default": "None",
          "optional": "true",
          "shape": "n_samples,",
          "type": "array-like",
          "description": "Weights applied to individual samples (1. for unweighted).  .. versionadded:: 0.17 Gaussian Naive Bayes supports fitting with *sample_weight*. "
        }
      ],
      "name": "fit"
    },
    {
      "id": "sklearn.naive_bayes.GaussianNB.get_params",
      "returns": {
        "type": "mapping",
        "name": "params",
        "description": "Parameter names mapped to their values. '"
      },
      "description": "'Get parameters for this estimator.\n",
      "parameters": [
        {
          "type": "boolean",
          "optional": "true",
          "name": "deep",
          "description": "If True, will return the parameters for this estimator and contained subobjects that are estimators. "
        }
      ],
      "name": "get_params"
    },
    {
      "id": "sklearn.naive_bayes.GaussianNB.partial_fit",
      "returns": {
        "type": "object",
        "name": "self",
        "description": "Returns self. '"
      },
      "description": "'Incremental fit on a batch of samples.\n\nThis method is expected to be called several times consecutively\non different chunks of a dataset so as to implement out-of-core\nor online learning.\n\nThis is especially useful when the whole dataset is too big to fit in\nmemory at once.\n\nThis method has some performance and numerical stability overhead,\nhence it is better to call partial_fit on chunks of data that are\nas large as possible (as long as fitting in the memory budget) to\nhide the overhead.\n",
      "parameters": [
        {
          "shape": "n_samples, n_features",
          "type": "array-like",
          "name": "X",
          "description": "Training vectors, where n_samples is the number of samples and n_features is the number of features. "
        },
        {
          "shape": "n_samples,",
          "type": "array-like",
          "name": "y",
          "description": "Target values. "
        },
        {
          "name": "classes",
          "default": "None",
          "optional": "true",
          "shape": "n_classes,",
          "type": "array-like",
          "description": "List of all the classes that can possibly appear in the y vector.  Must be provided at the first call to partial_fit, can be omitted in subsequent calls. "
        },
        {
          "name": "sample_weight",
          "default": "None",
          "optional": "true",
          "shape": "n_samples,",
          "type": "array-like",
          "description": "Weights applied to individual samples (1. for unweighted).  .. versionadded:: 0.17 "
        }
      ],
      "name": "partial_fit"
    },
    {
      "id": "sklearn.naive_bayes.GaussianNB.predict",
      "returns": {
        "shape": "n_samples",
        "type": "array",
        "name": "C",
        "description": "Predicted target values for X '"
      },
      "description": "'\nPerform classification on an array of test vectors X.\n",
      "parameters": [
        {
          "shape": "n_samples, n_features",
          "type": "array-like",
          "name": "X",
          "description": ""
        }
      ],
      "name": "predict"
    },
    {
      "id": "sklearn.naive_bayes.GaussianNB.predict_log_proba",
      "returns": {
        "shape": "n_samples, n_classes",
        "type": "array-like",
        "name": "C",
        "description": "Returns the log-probability of the samples for each class in the model. The columns correspond to the classes in sorted order, as they appear in the attribute `classes_`. '"
      },
      "description": "'\nReturn log-probability estimates for the test vector X.\n",
      "parameters": [
        {
          "shape": "n_samples, n_features",
          "type": "array-like",
          "name": "X",
          "description": ""
        }
      ],
      "name": "predict_log_proba"
    },
    {
      "id": "sklearn.naive_bayes.GaussianNB.predict_proba",
      "returns": {
        "shape": "n_samples, n_classes",
        "type": "array-like",
        "name": "C",
        "description": "Returns the probability of the samples for each class in the model. The columns correspond to the classes in sorted order, as they appear in the attribute `classes_`. '"
      },
      "description": "'\nReturn probability estimates for the test vector X.\n",
      "parameters": [
        {
          "shape": "n_samples, n_features",
          "type": "array-like",
          "name": "X",
          "description": ""
        }
      ],
      "name": "predict_proba"
    },
    {
      "id": "sklearn.naive_bayes.GaussianNB.score",
      "returns": {
        "type": "float",
        "name": "score",
        "description": "Mean accuracy of self.predict(X) wrt. y.  '"
      },
      "description": "'Returns the mean accuracy on the given test data and labels.\n\nIn multi-label classification, this is the subset accuracy\nwhich is a harsh metric since you require for each sample that\neach label set be correctly predicted.\n",
      "parameters": [
        {
          "shape": "n_samples, n_features",
          "type": "array-like",
          "name": "X",
          "description": "Test samples. "
        },
        {
          "shape": "n_samples",
          "type": "array-like",
          "name": "y",
          "description": "True labels for X. "
        },
        {
          "type": "array-like",
          "shape": "n_samples",
          "optional": "true",
          "name": "sample_weight",
          "description": "Sample weights. "
        }
      ],
      "name": "score"
    },
    {
      "id": "sklearn.naive_bayes.GaussianNB.set_params",
      "returns": {
        "name": "self",
        "description": "\""
      },
      "description": "\"Set the parameters of this estimator.\n\nThe method works on simple estimators as well as on nested objects\n(such as pipelines). The latter have parameters of the form\n``<component>__<parameter>`` so that it's possible to update each\ncomponent of a nested object.\n",
      "parameters": [],
      "name": "set_params"
    }
  ],
  "source_code": "https://github.com/scikit-learn/scikit-learn/blob/0.18.X/sklearn/naive_bayes.py#L106",
  "category_unanalyzed": "naive_bayes",
  "name": "sklearn.naive_bayes.GaussianNB",
  "team": "jpl",
  "attributes": [
    {
      "shape": "n_classes,",
      "type": "array",
      "name": "class_prior_",
      "description": "probability of each class. "
    },
    {
      "shape": "n_classes,",
      "type": "array",
      "name": "class_count_",
      "description": "number of training samples observed in each class. "
    },
    {
      "shape": "n_classes, n_features",
      "type": "array",
      "name": "theta_",
      "description": "mean of each feature per class "
    },
    {
      "shape": "n_classes, n_features",
      "type": "array",
      "name": "sigma_",
      "description": "variance of each feature per class "
    }
  ]
}
